<?xml version="1.0" encoding="UTF-8"?>
<svg width="23px" height="23px" viewBox="0 0 23 23" version="1.1" xmlns="http://www.w3.org/2000/svg" xmlns:xlink="http://www.w3.org/1999/xlink">
    <!-- Generator: Sketch 49.2 (51160) - http://www.bohemiancoding.com/sketch -->
    <title>Instagram</title>
    <desc>Created with Sketch.</desc>
    <defs></defs>
    <g id="Desktop-HD-(1440x1020)" stroke="none" stroke-width="1" fill="none" fill-rule="evenodd">
        <g id="Prodotto-interno" transform="translate(-1170.000000, -2639.000000)" fill="#FFFFFF" fill-rule="nonzero">
            <g id="Group-10" transform="translate(0.000000, 2261.000000)">
                <path d="M1181.56563,378.587107 C1178.57822,378.587107 1178.20376,378.599941 1177.03042,378.653107 C1175.85938,378.706732 1175.05959,378.892816 1174.36017,379.164607 C1173.63692,379.445566 1173.02322,379.821857 1172.41226,380.433274 C1171.80038,381.044691 1171.42409,381.658399 1171.14313,382.381649 C1170.87134,383.081524 1170.6848,383.880857 1170.63163,385.051899 C1170.57847,386.225232 1170.56563,386.599691 1170.56563,389.587107 C1170.56563,392.574524 1170.57847,392.948982 1170.63163,394.122316 C1170.68526,395.293357 1170.87134,396.093149 1171.14313,396.792566 C1171.42409,397.515816 1171.80038,398.129524 1172.4118,398.740482 C1173.02322,399.352357 1173.63692,399.728649 1174.36017,400.010066 C1175.06005,400.281399 1175.85938,400.467482 1177.03042,400.521107 C1178.20376,400.574274 1178.57822,400.587107 1181.56563,400.587107 C1184.55305,400.587107 1184.92751,400.574274 1186.10084,400.521107 C1187.27188,400.467482 1188.07167,400.281399 1188.77109,400.009607 C1189.49434,399.728649 1190.10805,399.352357 1190.71901,398.740941 C1191.33088,398.129524 1191.70717,397.515816 1191.98859,396.792566 C1192.25992,396.092691 1192.44601,395.293357 1192.49963,394.122316 C1192.5528,392.948982 1192.56563,392.574524 1192.56563,389.587107 C1192.56563,386.599691 1192.5528,386.225232 1192.49963,385.051899 C1192.44601,383.880857 1192.25992,383.081066 1191.98813,382.381649 C1191.70717,381.658399 1191.33088,381.044691 1190.71947,380.433732 C1190.10805,379.821857 1189.49434,379.445566 1188.77109,379.164607 C1188.07122,378.892816 1187.27188,378.706274 1186.10084,378.653107 C1184.92751,378.599941 1184.55305,378.587107 1181.56563,378.587107 Z M1181.56563,380.568941 C1184.50263,380.568941 1184.85051,380.580399 1186.01055,380.633107 C1187.08305,380.682149 1187.66513,380.861357 1188.05334,381.012149 C1188.56667,381.211524 1188.93334,381.449857 1189.31834,381.834857 C1189.70288,382.219857 1189.94122,382.586524 1190.14059,383.099857 C1190.29184,383.487149 1190.47059,384.069691 1190.51963,385.142191 C1190.57234,386.301774 1190.5838,386.650107 1190.5838,389.587107 C1190.5838,392.524107 1190.57234,392.871982 1190.51963,394.032024 C1190.47059,395.104524 1190.29138,395.686607 1190.14059,396.074816 C1189.94122,396.588149 1189.70288,396.954816 1189.31788,397.339816 C1188.93288,397.724357 1188.56622,397.962691 1188.05288,398.162066 C1187.66559,398.313316 1187.08305,398.492066 1186.01055,398.541107 C1184.85097,398.593816 1184.50263,398.605274 1181.56563,398.605274 C1178.62817,398.605274 1178.2803,398.593816 1177.12072,398.541107 C1176.04822,398.492066 1175.46613,398.312857 1175.07792,398.162066 C1174.56459,397.962691 1174.19792,397.724357 1173.81292,397.339357 C1173.42838,396.954357 1173.19005,396.587691 1172.99067,396.074357 C1172.83942,395.687066 1172.66067,395.104524 1172.61163,394.032024 C1172.55892,392.872441 1172.54747,392.524107 1172.54747,389.587107 C1172.54747,386.650107 1172.55892,386.302232 1172.61163,385.142191 C1172.66067,384.069691 1172.83988,383.487607 1172.99067,383.099399 C1173.19005,382.586066 1173.42838,382.219399 1173.81338,381.834399 C1174.19838,381.449857 1174.56505,381.211524 1175.07838,381.012149 C1175.46567,380.860899 1176.04822,380.682149 1177.12072,380.633107 C1178.2803,380.580399 1178.62863,380.568941 1181.56563,380.568941 Z M1181.56563,383.938607 C1178.44576,383.938607 1175.91713,386.467232 1175.91713,389.587107 C1175.91713,392.706982 1178.44576,395.235607 1181.56563,395.235607 C1184.68551,395.235607 1187.21413,392.706982 1187.21413,389.587107 C1187.21413,386.467232 1184.68551,383.938607 1181.56563,383.938607 Z M1181.56563,393.253774 C1179.54059,393.253774 1177.89897,391.612152 1177.89897,389.587107 C1177.89897,387.562063 1179.54059,385.920441 1181.56563,385.920441 C1183.59068,385.920441 1185.2323,387.562063 1185.2323,389.587107 C1185.2323,391.612152 1183.59068,393.253774 1181.56563,393.253774 Z M1188.75734,383.715399 C1188.75734,384.444415 1188.16636,385.035399 1187.43734,385.035399 C1186.70833,385.035399 1186.11734,384.444415 1186.11734,383.715399 C1186.11734,382.986383 1186.70833,382.395399 1187.43734,382.395399 C1188.16636,382.395399 1188.75734,382.986383 1188.75734,383.715399 Z" id="Instagram"></path>
            </g>
        </g>
    </g>
</svg>