<?xml version="1.0" encoding="UTF-8"?>
<svg width="47px" height="25px" viewBox="0 0 47 25" version="1.1" xmlns="http://www.w3.org/2000/svg" xmlns:xlink="http://www.w3.org/1999/xlink">
    <g id="Desktop-HD-(1440x1020)" stroke="none" stroke-width="1" fill="none" fill-rule="evenodd">
        <g id="Prodotto-interno" transform="translate(-974.000000, -632.000000)" fill="#FFFFFF">
            <g id="Group-11" transform="translate(927.000000, 600.270020)">
                <g id="Group-9" transform="translate(0.500000, 26.000000)">
                    <g id="Group-7" transform="translate(46.966354, 6.076457)">
                        <path d="M42.5298949,23.8810446 L42.3229166,23.8222983 L2.93009174,12.6058493 L0.27079599,2.65791091 L3.66783626,0.337431163 L43.8195816,11.6146758 L45.8668227,21.518896 L42.5298949,23.8810446 Z M3.66715316,11.8810836 L42.3618531,22.8987515 L44.8674521,21.1254322 L43.0497316,12.3326105 L3.828364,1.31630884 L1.30363831,3.0411282 L3.66715316,11.8810836 Z" id="Fill-251"></path>
                        <polygon id="Fill-252" points="42.3145145 23.419886 40.263858 14.5068393 0.749441901 2.97889808 0.824582546 2.72000441 40.4906461 14.2923469 42.5775068 23.3597735"></polygon>
                        <polygon id="Fill-253" points="40.4609997 14.5049949 40.293641 14.293918 43.3511822 11.8682414 43.5185409 12.0793183"></polygon>
                    </g>
                </g>
            </g>
        </g>
    </g>
</svg>